<?xml version="1.0" standalone="no"?>
<!DOCTYPE svg PUBLIC "-//W3C//DTD SVG 20010904//EN"
 "http://www.w3.org/TR/2001/REC-SVG-20010904/DTD/svg10.dtd">
<svg version="1.0" xmlns="http://www.w3.org/2000/svg"
 width="512.000000pt" height="512.000000pt" viewBox="0 0 512.000000 512.000000"
 preserveAspectRatio="xMidYMid meet">

<g transform="translate(0.000000,512.000000) scale(0.100000,-0.100000)"
fill="#000000" stroke="none">
<path d="M2505 4215 c-48 -17 -81 -52 -94 -103 -7 -24 -11 -277 -11 -719 l0
-683 -701 0 c-676 0 -703 -1 -733 -19 -92 -57 -94 -198 -4 -263 l33 -23 703
-3 702 -2 0 -688 c0 -656 1 -689 20 -729 25 -57 69 -83 140 -83 62 0 100 20
131 66 18 28 19 60 19 731 l0 703 709 2 c698 3 710 3 738 24 15 11 39 41 51
67 32 64 24 115 -28 171 l-39 41 -710 3 -710 2 -3 703 c-3 685 -3 703 -23 737
-38 63 -119 91 -190 65z"/>
</g>
</svg>
