<?xml version="1.0" standalone="no"?>
<!DOCTYPE svg PUBLIC "-//W3C//DTD SVG 20010904//EN"
 "http://www.w3.org/TR/2001/REC-SVG-20010904/DTD/svg10.dtd">
<svg version="1.0" xmlns="http://www.w3.org/2000/svg"
 width="512.000000pt" height="512.000000pt" viewBox="0 0 512.000000 512.000000"
 preserveAspectRatio="xMidYMid meet">

<g transform="translate(0.000000,512.000000) scale(0.100000,-0.100000)"
fill="#000000" stroke="none">
<path d="M1277 2555 l-1277 -2555 2560 0 2560 0 -1277 2555 c-703 1405 -1280
2555 -1283 2555 -3 0 -580 -1150 -1283 -2555z m2321 -190 l1032 -2065 -2070 0
-2070 0 1032 2065 c568 1136 1035 2065 1038 2065 3 0 470 -929 1038 -2065z"/>
</g>
</svg>
