<?xml version="1.0" standalone="no"?>
<!DOCTYPE svg PUBLIC "-//W3C//DTD SVG 20010904//EN"
 "http://www.w3.org/TR/2001/REC-SVG-20010904/DTD/svg10.dtd">
<svg version="1.0" xmlns="http://www.w3.org/2000/svg"
 width="512.000000pt" height="512.000000pt" viewBox="0 0 512.000000 512.000000"
 preserveAspectRatio="xMidYMid meet">

<g transform="translate(0.000000,512.000000) scale(0.100000,-0.100000)"
fill="#000000" stroke="none">
<path d="M960 3555 l-965 -965 121 -122 c94 -95 853 -880 1775 -1832 l38 -40
98 97 98 96 -121 123 c-67 68 -429 440 -804 828 l-683 705 2301 3 2302 2 0
140 0 140 -2297 0 -2298 0 800 800 800 800 -95 95 c-52 52 -97 95 -100 95 -3
0 -439 -434 -970 -965z"/>
</g>
</svg>
