<?xml version="1.0" standalone="no"?>
<!DOCTYPE svg PUBLIC "-//W3C//DTD SVG 20010904//EN"
 "http://www.w3.org/TR/2001/REC-SVG-20010904/DTD/svg10.dtd">
<svg version="1.0" xmlns="http://www.w3.org/2000/svg"
 width="512.000000pt" height="497.000000pt" viewBox="0 0 512.000000 497.000000"
 preserveAspectRatio="xMidYMid meet">

<g transform="translate(0.000000,497.000000) scale(0.100000,-0.100000)"
fill="#000000" stroke="none">
<path d="M870 4781 l0 -188 -187 -6 c-165 -5 -198 -8 -269 -31 -202 -65 -356
-236 -399 -444 -13 -63 -15 -300 -13 -1855 l3 -1782 23 -65 c36 -98 79 -168
146 -236 68 -67 127 -105 225 -143 l66 -26 2060 -3 c2270 -3 2133 -6 2262 58
136 68 253 201 303 345 l25 70 3 1782 c2 1555 0 1792 -13 1855 -43 208 -197
379 -399 444 -72 23 -103 27 -268 31 l-188 6 0 188 0 189 -155 0 -155 0 0
-190 0 -190 -1380 0 -1380 0 0 190 0 190 -155 0 -155 0 0 -189z m0 -721 l0
-220 155 0 155 0 0 220 0 220 1380 0 1380 0 0 -220 0 -220 155 0 155 0 0 220
0 220 173 0 174 0 61 -31 c90 -45 147 -124 153 -214 1 -22 2 -151 1 -287 l-2
-248 -2256 0 -2256 0 4 283 c3 274 4 283 27 331 31 63 82 113 145 142 47 22
63 24 224 24 l172 0 0 -220z m3940 -2202 c0 -1329 -1 -1343 -21 -1388 -26 -58
-72 -105 -134 -138 l-50 -27 -2045 0 -2045 0 -50 27 c-64 34 -108 80 -137 143
l-23 50 -3 1338 -2 1337 2255 0 2255 0 0 -1342z"/>
<path d="M2921 1979 c-403 -406 -602 -599 -616 -599 -13 0 -133 113 -360 340
-228 228 -347 340 -361 340 -20 0 -204 -177 -204 -196 0 -5 204 -213 453 -462
312 -312 459 -452 473 -452 15 0 236 215 728 710 388 391 706 716 706 723 0
22 -184 197 -205 196 -12 -1 -256 -239 -614 -600z"/>
</g>
</svg>
