<?xml version="1.0" standalone="no"?>
<!DOCTYPE svg PUBLIC "-//W3C//DTD SVG 20010904//EN"
 "http://www.w3.org/TR/2001/REC-SVG-20010904/DTD/svg10.dtd">
<svg version="1.0" xmlns="http://www.w3.org/2000/svg"
 width="512.000000pt" height="512.000000pt" viewBox="0 0 512.000000 512.000000"
 preserveAspectRatio="xMidYMid meet">

<g transform="translate(0.000000,512.000000) scale(0.100000,-0.100000)"
fill="#000000" stroke="none">
<path d="M870 4841 l0 -188 -187 -6 c-166 -4 -197 -8 -269 -31 -101 -32 -183
-85 -257 -165 -68 -74 -111 -155 -138 -259 -18 -73 -19 -128 -19 -1836 0
-1510 2 -1771 15 -1831 43 -204 195 -370 405 -441 53 -18 129 -19 2135 -19
l2080 0 73 24 c179 59 314 193 379 378 l28 78 0 1805 0 1805 -22 70 c-59 187
-202 332 -387 391 -71 23 -104 26 -268 31 l-188 6 0 188 0 189 -155 0 -155 0
0 -190 0 -190 -1380 0 -1380 0 0 190 0 190 -155 0 -155 0 0 -189z m0 -721 l0
-220 155 0 155 0 0 220 0 220 1380 0 1380 0 0 -220 0 -220 155 0 155 0 0 220
0 220 173 0 c160 0 176 -2 223 -24 60 -28 113 -78 140 -132 17 -35 19 -66 22
-331 l3 -293 -2256 0 -2256 0 3 283 c3 241 6 288 20 320 30 67 76 114 140 146
l61 31 174 0 173 0 0 -220z m3940 -2202 c0 -1284 -1 -1345 -19 -1384 -27 -58
-77 -111 -135 -142 l-51 -27 -2025 -3 c-1769 -2 -2031 0 -2075 13 -65 19 -137
81 -173 149 l-27 51 -3 1343 -2 1342 2255 0 2255 0 0 -1342z"/>
<path d="M3005 2590 c-109 -24 -207 -79 -262 -148 -68 -85 -117 -223 -124
-352 l-4 -65 155 0 155 0 7 69 c9 91 31 148 73 185 81 71 232 66 305 -10 68
-71 81 -200 30 -307 -38 -81 -92 -133 -304 -291 -207 -155 -310 -258 -359
-362 -44 -92 -66 -167 -76 -258 l-7 -71 553 0 553 0 0 140 0 140 -352 2 -352
3 50 50 c27 28 128 106 224 175 340 242 430 366 430 595 0 147 -39 251 -131
349 -61 65 -121 103 -216 137 -65 24 -276 35 -348 19z"/>
<path d="M1850 2572 c0 -38 -32 -111 -66 -150 -53 -63 -119 -90 -254 -104
l-115 -13 -3 -108 -3 -107 191 0 190 0 0 -555 0 -555 165 0 165 0 0 805 0 805
-135 0 c-124 0 -135 -1 -135 -18z"/>
</g>
</svg>
