<?xml version="1.0" standalone="no"?>
<!DOCTYPE svg PUBLIC "-//W3C//DTD SVG 20010904//EN"
 "http://www.w3.org/TR/2001/REC-SVG-20010904/DTD/svg10.dtd">
<svg version="1.0" xmlns="http://www.w3.org/2000/svg"
 width="512.000000pt" height="512.000000pt" viewBox="0 0 512.000000 512.000000"
 preserveAspectRatio="xMidYMid meet">

<g transform="translate(0.000000,512.000000) scale(0.100000,-0.100000)"
fill="#000000" stroke="none">
<path d="M2790 5098 c-81 -28 -158 -84 -203 -146 -19 -26 -82 -143 -141 -259
l-106 -213 -824 0 c-792 0 -826 -1 -888 -20 -120 -37 -205 -111 -262 -230
l-31 -65 0 -1925 0 -1925 31 -65 c57 -119 142 -193 262 -230 62 -19 96 -20
1106 -20 1110 0 1087 -1 1184 49 24 12 60 37 80 55 30 27 48 34 99 40 123 14
221 62 297 147 28 31 200 367 632 1236 1058 2130 1073 2160 1082 2231 19 137
-27 273 -121 366 -49 47 -126 88 -853 450 -439 219 -866 430 -949 469 -147 70
-152 71 -240 74 -74 3 -102 -1 -155 -19z m849 -604 c372 -185 781 -388 910
-452 188 -93 237 -121 252 -146 45 -73 86 18 -796 -1759 -449 -903 -824 -1651
-835 -1662 -20 -19 -20 -11 -20 1786 0 1263 -3 1823 -11 1865 -36 194 -195
338 -390 353 l-81 6 78 154 c86 167 108 191 183 191 24 0 222 -93 710 -336z
m-852 -324 c18 -10 40 -31 50 -47 17 -26 18 -111 18 -1883 0 -1772 -1 -1857
-18 -1883 -10 -16 -32 -37 -50 -47 -31 -19 -59 -20 -1050 -20 -1124 0 -1057
-4 -1097 63 -20 31 -20 65 -20 1885 0 2047 -5 1891 63 1932 31 19 58 20 1052
20 993 0 1021 -1 1052 -20z"/>
<path d="M1190 2922 c-172 -57 -281 -174 -336 -358 -29 -94 -24 -238 10 -339
71 -207 201 -345 848 -893 l27 -23 88 78 c49 43 163 141 254 218 428 364 559
553 559 808 0 293 -217 527 -489 527 -146 0 -252 -48 -359 -165 l-57 -63 -35
46 c-43 56 -118 113 -195 149 -79 36 -229 43 -315 15z m208 -286 c46 -24 93
-81 147 -178 30 -54 67 -105 89 -123 33 -26 46 -30 100 -30 85 0 122 26 178
125 97 174 146 220 230 220 94 0 165 -58 194 -157 54 -187 -42 -326 -482 -699
-61 -52 -114 -94 -118 -94 -3 0 -84 67 -179 149 -227 196 -346 321 -393 416
-34 69 -36 77 -33 157 4 73 8 91 34 133 51 82 159 119 233 81z"/>
</g>
</svg>
