<?xml version="1.0" standalone="no"?>
<!DOCTYPE svg PUBLIC "-//W3C//DTD SVG 20010904//EN"
 "http://www.w3.org/TR/2001/REC-SVG-20010904/DTD/svg10.dtd">
<svg version="1.0" xmlns="http://www.w3.org/2000/svg"
 width="512.000000pt" height="512.000000pt" viewBox="0 0 512.000000 512.000000"
 preserveAspectRatio="xMidYMid meet">

<g transform="translate(0.000000,512.000000) scale(0.100000,-0.100000)"
fill="#000000" stroke="none">
<path d="M4815 4151 c-28 -13 -432 -413 -1380 -1366 -1104 -1111 -1349 -1352
-1390 -1371 -98 -46 -207 -21 -290 66 -22 23 -357 356 -745 740 -769 760 -737
733 -825 709 -56 -15 -171 -132 -180 -183 -18 -93 -73 -32 922 -1021 521 -518
932 -920 955 -932 52 -29 84 -29 135 0 43 23 3031 3020 3064 3072 23 36 25
105 5 143 -24 45 -129 141 -166 152 -47 14 -59 13 -105 -9z"/>
</g>
</svg>
