<?xml version="1.0" standalone="no"?>
<!DOCTYPE svg PUBLIC "-//W3C//DTD SVG 20010904//EN"
 "http://www.w3.org/TR/2001/REC-SVG-20010904/DTD/svg10.dtd">
<svg version="1.0" xmlns="http://www.w3.org/2000/svg"
 width="512.000000pt" height="512.000000pt" viewBox="0 0 512.000000 512.000000"
 preserveAspectRatio="xMidYMid meet">

<g transform="translate(0.000000,512.000000) scale(0.100000,-0.100000)"
fill="#000000" stroke="none">
<path d="M2345 5114 c-16 -2 -70 -9 -120 -15 -369 -45 -758 -190 -1079 -403
-154 -103 -262 -191 -396 -326 -402 -401 -644 -891 -732 -1475 -18 -121 -18
-549 0 -670 88 -584 331 -1074 732 -1475 401 -402 891 -644 1475 -732 121 -18
549 -18 670 0 584 88 1074 330 1475 732 402 401 644 891 732 1475 18 121 18
549 0 670 -88 584 -330 1074 -732 1475 -393 393 -868 633 -1437 726 -93 15
-515 28 -588 18z m531 -319 c592 -83 1130 -401 1489 -880 299 -400 448 -845
448 -1345 1 -319 -46 -572 -160 -855 -297 -742 -978 -1275 -1778 -1391 -161
-24 -467 -24 -626 -1 -429 63 -817 237 -1149 515 -354 296 -620 725 -731 1176
-47 195 -63 329 -63 546 0 371 69 670 229 996 220 451 584 813 1040 1034 265
129 490 189 840 224 77 8 351 -3 461 -19z"/>
<path d="M2414 4120 c-12 -4 -31 -21 -43 -36 l-21 -27 2 -879 3 -880 28 -24
28 -24 680 0 681 0 29 29 c27 27 29 35 29 106 0 71 -2 79 -29 106 l-29 29
-576 0 -576 0 0 771 c0 533 -3 777 -11 791 -21 40 -135 62 -195 38z"/>
</g>
</svg>
