<?xml version="1.0" standalone="no"?>
<!DOCTYPE svg PUBLIC "-//W3C//DTD SVG 20010904//EN"
 "http://www.w3.org/TR/2001/REC-SVG-20010904/DTD/svg10.dtd">
<svg version="1.0" xmlns="http://www.w3.org/2000/svg"
 width="512.000000pt" height="512.000000pt" viewBox="0 0 512.000000 512.000000"
 preserveAspectRatio="xMidYMid meet">

<g transform="translate(0.000000,512.000000) scale(0.100000,-0.100000)"
fill="#000000" stroke="none">
<path d="M2382 4519 c-136 -13 -186 -27 -217 -59 -58 -61 -37 -164 41 -196 29
-12 50 -13 107 -5 40 6 105 13 146 17 64 5 78 10 108 38 66 61 50 160 -31 197
-23 10 -48 18 -56 17 -8 0 -52 -4 -98 -9z"/>
<path d="M2938 4454 c-85 -46 -71 -188 22 -220 120 -41 232 -74 255 -74 66 0
115 55 115 131 0 66 -41 99 -180 143 -123 39 -170 43 -212 20z"/>
<path d="M1572 4253 c-150 -80 -385 -282 -514 -442 -192 -238 -329 -528 -394
-836 -20 -95 -27 -160 -31 -310 l-5 -191 -45 -18 c-25 -11 -74 -46 -109 -79
-73 -68 -119 -150 -137 -245 -6 -34 -16 -62 -22 -62 -26 0 -119 -53 -161 -92
-184 -170 -200 -442 -36 -620 62 -67 103 -96 174 -123 41 -15 49 -23 62 -63
50 -144 177 -254 335 -288 79 -16 309 -18 365 -3 55 15 93 46 116 94 19 40 20
62 20 711 0 628 -2 671 -19 709 -36 78 -91 105 -217 105 l-86 0 6 123 c13 238
46 402 116 580 129 329 356 608 653 801 48 32 95 69 104 82 33 51 14 133 -40
169 -44 29 -78 28 -135 -2z m-632 -2568 l0 -565 -87 0 c-143 0 -212 31 -253
111 -20 38 -21 55 -18 468 l3 429 31 39 c51 64 101 83 221 83 l103 0 0 -565z
m-612 -112 l-3 -78 -30 39 c-24 32 -30 50 -33 105 -3 61 -1 70 30 116 l33 50
3 -77 c2 -43 2 -113 0 -155z"/>
<path d="M3615 4146 c-62 -27 -91 -85 -75 -146 8 -30 28 -53 88 -104 358 -301
569 -700 611 -1156 6 -63 11 -143 11 -177 l0 -63 -87 0 c-107 0 -161 -22 -201
-83 l-27 -41 -3 -629 -3 -629 -337 5 c-350 6 -394 10 -563 58 l-77 21 -4 77
c-3 42 -15 101 -27 131 -30 80 -107 162 -189 202 -63 31 -73 33 -172 33 -93 0
-111 -3 -163 -27 -70 -33 -155 -116 -186 -183 -112 -239 29 -508 292 -556 93
-17 212 15 295 78 l34 26 102 -32 c234 -72 336 -81 956 -81 516 0 559 4 660
55 79 40 154 117 195 198 19 38 35 75 35 83 0 7 22 20 50 29 108 36 215 143
259 261 80 209 -18 450 -223 549 l-70 34 -12 59 c-27 130 -114 248 -227 307
l-57 30 0 66 c0 472 -152 916 -430 1263 -67 83 -268 279 -325 318 -51 33 -92
41 -130 24z m810 -1915 c47 -22 89 -64 104 -104 7 -18 11 -175 11 -445 0 -413
-1 -417 -23 -457 -12 -21 -41 -53 -65 -69 -39 -28 -49 -30 -157 -34 l-115 -5
0 567 0 566 103 0 c78 0 111 -5 142 -19z m434 -540 c15 -69 -4 -135 -48 -175
l-21 -19 0 154 1 154 29 -34 c16 -19 33 -55 39 -80z m-2222 -311 c84 -51 83
-180 -3 -236 -39 -26 -113 -23 -152 5 -114 81 -61 251 78 251 27 0 58 -8 77
-20z"/>
</g>
</svg>
