<?xml version="1.0" standalone="no"?>
<!DOCTYPE svg PUBLIC "-//W3C//DTD SVG 20010904//EN"
 "http://www.w3.org/TR/2001/REC-SVG-20010904/DTD/svg10.dtd">
<svg version="1.0" xmlns="http://www.w3.org/2000/svg"
 width="512.000000pt" height="512.000000pt" viewBox="0 0 512.000000 512.000000"
 preserveAspectRatio="xMidYMid meet">

<g transform="translate(0.000000,512.000000) scale(0.100000,-0.100000)"
fill="#000000" stroke="none">
<path d="M1704 3480 c-69 -35 -102 -121 -74 -197 6 -15 167 -184 358 -375
l347 -348 -342 -342 c-187 -189 -348 -357 -357 -375 -36 -72 -11 -162 56 -203
37 -22 116 -27 151 -9 12 6 178 167 370 357 l347 347 348 -347 c191 -190 357
-351 369 -357 38 -19 116 -13 154 12 62 41 88 133 55 195 -8 15 -170 182 -360
372 l-346 345 349 350 c192 192 354 360 360 372 33 66 -4 169 -74 203 -49 24
-84 25 -128 6 -18 -8 -186 -168 -377 -360 l-345 -346 -345 345 c-231 231 -357
349 -382 360 -50 20 -85 19 -134 -5z"/>
</g>
</svg>
