<?xml version="1.0" standalone="no"?>
<!DOCTYPE svg PUBLIC "-//W3C//DTD SVG 20010904//EN"
 "http://www.w3.org/TR/2001/REC-SVG-20010904/DTD/svg10.dtd">
<svg version="1.0" xmlns="http://www.w3.org/2000/svg"
 width="498.000000pt" height="451.000000pt" viewBox="0 0 498.000000 451.000000"
 preserveAspectRatio="xMidYMid meet">

<g transform="translate(0.000000,451.000000) scale(0.100000,-0.100000)"
fill="#000000" stroke="none">
<path d="M1330 4056 l0 -454 90 -738 c49 -407 92 -756 95 -776 l5 -38 -641 0
c-448 0 -653 -3 -679 -11 -64 -19 -131 -78 -165 -144 -60 -118 -32 -246 79
-358 28 -29 106 -97 174 -151 183 -146 216 -197 287 -452 91 -322 155 -379
489 -440 261 -47 301 -68 509 -277 116 -117 155 -150 211 -177 62 -31 76 -34
150 -33 82 1 107 7 331 78 107 34 131 38 225 38 94 0 118 -4 225 -38 224 -71
249 -77 331 -78 74 -1 88 2 150 33 56 27 95 60 211 177 208 209 248 230 509
277 334 61 398 118 489 440 71 255 104 306 287 452 158 127 219 189 254 261
57 114 28 255 -68 337 -78 67 -61 66 -776 66 l-644 0 6 38 c3 20 44 369 91
776 l85 738 0 454 0 454 -150 0 -150 0 0 -370 0 -370 -855 0 -855 0 0 370 0
370 -150 0 -150 0 0 -454z m1990 -590 c0 -2 -36 -316 -80 -696 -44 -380 -80
-698 -80 -706 0 -12 -99 -14 -670 -14 -559 0 -670 2 -670 14 0 16 -157 1316
-166 1369 l-6 37 836 0 c460 0 836 -2 836 -4z m-1870 -1721 c0 -2 -70 -93
-155 -201 -86 -108 -155 -200 -153 -204 4 -10 219 -180 227 -180 4 0 111 133
239 295 l233 295 249 0 250 0 0 -455 0 -455 150 0 150 0 0 455 0 455 248 -1
247 0 230 -295 c127 -161 233 -294 236 -294 9 0 224 170 227 180 2 5 -64 94
-145 197 -82 103 -152 194 -157 201 -6 9 109 12 559 12 386 0 564 -3 560 -10
-4 -6 -57 -51 -119 -100 -237 -187 -318 -305 -397 -575 -53 -184 -62 -207 -90
-227 -14 -11 -96 -32 -199 -52 -323 -64 -375 -92 -616 -328 -139 -135 -155
-148 -188 -148 -19 0 -98 20 -173 44 -312 100 -434 100 -746 0 -75 -24 -154
-44 -173 -44 -33 0 -49 13 -188 148 -239 234 -306 270 -614 327 -75 14 -156
32 -178 41 -48 17 -54 30 -118 254 -73 253 -158 375 -392 560 -62 49 -115 94
-119 100 -4 7 172 10 554 10 309 0 561 -2 561 -5z"/>
</g>
</svg>
