<?xml version="1.0" standalone="no"?>
<!DOCTYPE svg PUBLIC "-//W3C//DTD SVG 20010904//EN"
 "http://www.w3.org/TR/2001/REC-SVG-20010904/DTD/svg10.dtd">
<svg version="1.0" xmlns="http://www.w3.org/2000/svg"
 width="512.000000pt" height="512.000000pt" viewBox="0 0 512.000000 512.000000"
 preserveAspectRatio="xMidYMid meet">

<g transform="translate(0.000000,512.000000) scale(0.100000,-0.100000)"
fill="#000000" stroke="none">
<path d="M720 2851 c-83 -26 -150 -82 -191 -161 -20 -37 -24 -60 -24 -130 0
-73 4 -92 27 -135 92 -175 316 -218 466 -90 97 84 127 239 69 357 -34 69 -91
121 -164 148 -54 20 -136 25 -183 11z"/>
<path d="M2474 2850 c-89 -28 -181 -123 -205 -213 -27 -100 12 -231 88 -298
66 -58 110 -74 203 -74 76 0 91 3 138 29 60 33 101 76 134 139 19 34 23 58 23
127 0 69 -4 93 -23 127 -57 107 -143 164 -256 169 -39 2 -85 -1 -102 -6z"/>
<path d="M4214 2840 c-71 -28 -128 -81 -161 -148 -23 -47 -28 -70 -28 -132 0
-62 5 -85 28 -132 108 -221 419 -222 535 -3 23 43 27 62 27 135 0 95 -19 145
-79 208 -77 82 -217 114 -322 72z"/>
</g>
</svg>
