<?xml version="1.0" standalone="no"?>
<!DOCTYPE svg PUBLIC "-//W3C//DTD SVG 20010904//EN"
 "http://www.w3.org/TR/2001/REC-SVG-20010904/DTD/svg10.dtd">
<svg version="1.0" xmlns="http://www.w3.org/2000/svg"
 width="512.000000pt" height="512.000000pt" viewBox="0 0 512.000000 512.000000"
 preserveAspectRatio="xMidYMid meet">

<g transform="translate(0.000000,512.000000) scale(0.100000,-0.100000)"
fill="#000000" stroke="none">
<path d="M596 3865 c-47 -17 -91 -57 -119 -110 -20 -37 -22 -57 -25 -277 l-3
-238 -151 0 c-173 0 -213 -12 -268 -78 l-30 -37 0 -570 0 -570 30 -37 c55 -66
95 -78 268 -78 l151 0 3 -237 c3 -222 4 -241 25 -279 28 -53 83 -100 130 -113
54 -15 814 -15 864 0 52 16 103 61 128 112 20 41 21 59 21 380 l0 337 940 0
940 0 0 -337 c0 -321 1 -339 21 -380 25 -51 76 -96 128 -112 50 -15 810 -15
864 0 47 13 102 60 130 113 21 38 22 57 25 279 l3 237 151 0 c173 0 213 12
268 78 l30 37 0 570 0 570 -30 37 c-55 66 -95 78 -268 78 l-151 0 -3 238 c-3
221 -4 240 -25 278 -28 53 -83 100 -130 113 -54 15 -814 15 -864 0 -52 -16
-103 -61 -128 -112 -20 -41 -21 -59 -21 -380 l0 -337 -940 0 -940 0 0 337 c0
321 -1 339 -21 380 -25 51 -76 96 -128 112 -59 17 -824 14 -875 -4z m724
-1310 l0 -1025 -280 0 -280 0 0 1025 0 1025 280 0 280 0 0 -1025z m3040 0 l0
-1025 -280 0 -280 0 0 1025 0 1025 280 0 280 0 0 -1025z m-3910 0 l0 -385 -85
0 -85 0 0 385 0 385 85 0 85 0 0 -385z m4390 0 l0 -385 -85 0 -85 0 0 385 0
385 85 0 85 0 0 -385z m-1340 0 l0 -175 -940 0 -940 0 0 175 0 175 940 0 940
0 0 -175z"/>
</g>
</svg>
