<?xml version="1.0" standalone="no"?>
<!DOCTYPE svg PUBLIC "-//W3C//DTD SVG 20010904//EN"
 "http://www.w3.org/TR/2001/REC-SVG-20010904/DTD/svg10.dtd">
<svg version="1.0" xmlns="http://www.w3.org/2000/svg"
 width="488.000000pt" height="510.000000pt" viewBox="0 0 488.000000 510.000000"
 preserveAspectRatio="xMidYMid meet">

<g transform="translate(0.000000,510.000000) scale(0.100000,-0.100000)"
fill="#000000" stroke="none">
<path d="M1205 3935 c-357 -636 -651 -1160 -653 -1165 -2 -6 71 -11 177 -12
l181 -3 -336 -580 c-185 -319 -338 -586 -341 -593 -4 -9 38 -12 191 -12 108 0
196 -2 196 -4 0 -2 -137 -236 -305 -521 -168 -285 -305 -519 -305 -521 0 -2
383 -4 850 -4 l850 0 0 -260 0 -260 150 0 150 0 0 410 0 410 -735 0 c-404 0
-735 3 -735 8 1 4 137 239 304 522 l304 515 -199 5 -199 5 340 588 c187 324
340 590 340 592 0 3 -83 6 -184 7 l-184 3 393 698 c216 385 397 703 402 708 5
5 69 -94 158 -247 82 -140 154 -262 160 -271 10 -14 28 -6 136 57 68 40 126
74 128 76 3 3 -549 957 -574 990 -8 11 -163 -257 -660 -1141z"/>
<path d="M3140 4045 c-305 -68 -535 -320 -656 -722 l-28 -91 -80 -21 c-429
-114 -667 -384 -667 -756 -1 -184 51 -371 163 -588 l61 -117 -21 -73 c-36
-125 -45 -189 -45 -307 2 -323 177 -588 488 -740 180 -88 304 -110 627 -110
l208 0 0 -260 0 -260 150 0 150 0 0 578 0 577 280 302 c154 166 280 306 280
310 0 8 -149 148 -195 185 -22 17 -24 14 -191 -166 l-169 -183 -3 568 -2 569
-150 0 -150 0 0 -362 -1 -363 -197 203 -197 203 -110 -104 -110 -104 307 -314
307 -314 1 -382 0 -383 -177 0 c-311 1 -437 23 -571 102 -93 54 -186 154 -230
244 l-37 79 0 140 c1 149 0 144 81 365 l16 45 -56 84 c-68 100 -134 235 -172
351 -24 74 -28 101 -28 215 -1 128 0 132 32 197 76 155 265 260 566 314 50 9
94 19 98 23 3 3 13 47 22 97 41 238 148 464 274 575 143 126 342 141 536 41
158 -82 296 -266 355 -473 l18 -63 76 -12 c271 -42 493 -190 543 -362 12 -42
15 -81 11 -156 -6 -116 -24 -180 -99 -338 l-51 -108 46 -97 c50 -108 86 -217
113 -338 24 -111 24 -317 0 -405 -66 -243 -259 -412 -569 -500 -41 -11 -83
-20 -95 -20 -22 0 -22 -2 -22 -150 l0 -150 41 0 c22 0 76 9 120 20 335 86 594
264 727 500 157 279 159 660 7 1055 -15 39 -27 77 -27 85 0 8 13 47 30 87 165
389 92 735 -201 961 -81 61 -224 134 -331 168 l-86 26 -35 73 c-105 219 -280
400 -470 486 -149 67 -367 95 -505 64z"/>
</g>
</svg>
