<?xml version="1.0" standalone="no"?>
<!DOCTYPE svg PUBLIC "-//W3C//DTD SVG 20010904//EN"
 "http://www.w3.org/TR/2001/REC-SVG-20010904/DTD/svg10.dtd">
<svg version="1.0" xmlns="http://www.w3.org/2000/svg"
 width="512.000000pt" height="513.000000pt" viewBox="0 0 512.000000 513.000000"
 preserveAspectRatio="xMidYMid meet">

<g transform="translate(0.000000,513.000000) scale(0.100000,-0.100000)"
fill="#000000" stroke="none">
<path d="M1413 5121 c-12 -6 -25 -20 -28 -33 -3 -13 -4 -450 -3 -973 l3 -950
27 -95 c56 -205 139 -367 256 -499 50 -57 62 -90 44 -118 -4 -6 -219 -86 -477
-178 -259 -92 -499 -182 -535 -201 -244 -128 -422 -356 -503 -642 -21 -75 -21
-96 -25 -736 -3 -609 -2 -660 14 -677 17 -19 80 -19 2384 -19 2304 0 2367 0
2384 19 16 17 17 69 14 682 l-3 664 -28 90 c-74 239 -215 435 -405 564 -97 65
-153 88 -627 256 -242 86 -450 163 -462 171 -35 22 -29 57 22 114 142 160 241
369 279 590 14 81 16 212 16 1015 0 754 -2 925 -13 939 -13 18 -63 19 -1163
23 -728 2 -1157 0 -1171 -6z m2029 -318 c16 -15 18 -35 18 -226 0 -182 -2
-213 -17 -229 -15 -17 -56 -18 -874 -18 l-858 0 -15 22 c-13 19 -16 58 -16
223 0 165 3 204 16 223 l15 22 856 0 c783 0 858 -1 875 -17z m9 -804 c8 -15
10 -131 6 -403 -4 -350 -6 -388 -26 -466 -45 -175 -166 -366 -298 -471 -184
-147 -378 -209 -617 -196 -234 13 -425 102 -591 279 -134 141 -215 317 -235
509 -13 123 -13 710 0 743 l10 26 869 0 870 0 12 -21z m-1258 -1783 c56 -19
122 -37 147 -41 81 -13 80 -10 80 -246 0 -225 -3 -239 -56 -239 -19 0 -57 42
-199 220 -96 121 -180 228 -186 239 -21 33 -3 68 43 84 59 21 56 21 171 -17z
m908 23 c45 -16 69 -37 69 -64 0 -13 -72 -112 -185 -253 -167 -209 -188 -232
-215 -232 -19 0 -33 7 -40 19 -6 12 -10 100 -10 218 0 237 -1 234 97 252 37 7
102 25 143 41 88 32 96 34 141 19z m-1440 -186 c14 -16 185 -228 379 -473 194
-245 369 -462 389 -484 44 -47 86 -66 144 -66 90 0 97 6 525 545 310 389 404
501 423 503 30 4 709 -236 793 -280 37 -20 95 -66 147 -118 72 -71 94 -100
133 -180 73 -149 76 -178 76 -706 0 -441 -1 -455 -20 -474 -19 -19 -33 -20
-239 -20 -121 0 -231 4 -245 10 l-26 10 0 167 c0 228 7 217 -149 221 -170 4
-161 15 -161 -204 0 -167 -1 -173 -22 -188 -20 -14 -154 -16 -1240 -16 -1205
0 -1218 0 -1238 20 -18 18 -20 33 -20 189 0 141 -3 172 -16 185 -12 13 -40 16
-138 16 -81 0 -126 -4 -134 -12 -8 -8 -12 -64 -12 -185 0 -160 -2 -175 -20
-193 -19 -19 -33 -20 -250 -20 -219 0 -231 1 -251 21 -20 20 -20 26 -17 502 5
541 4 533 80 687 57 115 179 238 288 293 89 44 734 275 771 276 15 1 35 -9 50
-26z"/>
</g>
</svg>
