<?xml version="1.0" standalone="no"?>
<!DOCTYPE svg PUBLIC "-//W3C//DTD SVG 20010904//EN"
 "http://www.w3.org/TR/2001/REC-SVG-20010904/DTD/svg10.dtd">
<svg version="1.0" xmlns="http://www.w3.org/2000/svg"
 width="512.000000pt" height="513.000000pt" viewBox="0 0 512.000000 513.000000"
 preserveAspectRatio="xMidYMid meet">

<g transform="translate(0.000000,513.000000) scale(0.100000,-0.100000)"
fill="#000000" stroke="none">
<path d="M3490 4980 l0 -150 442 -2 441 -3 -564 -568 -564 -568 -100 67 c-190
126 -460 237 -690 283 -361 73 -716 51 -1064 -65 -315 -104 -582 -273 -816
-515 -222 -229 -371 -473 -469 -770 -143 -430 -143 -868 0 -1298 98 -297 247
-541 469 -770 234 -242 501 -411 816 -515 430 -143 868 -143 1298 0 315 104
582 273 816 515 222 229 371 473 469 770 143 430 143 868 0 1298 -93 279 -253
548 -443 744 l-56 57 200 203 c110 111 355 358 545 550 l345 347 5 -422 5
-423 150 0 150 0 3 693 2 692 -695 0 -695 0 0 -150z m-1148 -1229 c339 -59
647 -216 899 -459 269 -258 445 -586 510 -948 31 -167 31 -440 1 -605 -130
-720 -691 -1281 -1408 -1410 -167 -31 -440 -31 -605 -1 -720 130 -1281 691
-1410 1408 -31 167 -31 440 -1 605 139 767 755 1340 1533 1428 119 14 344 5
481 -18z"/>
</g>
</svg>
