<?xml version="1.0" standalone="no"?>
<!DOCTYPE svg PUBLIC "-//W3C//DTD SVG 20010904//EN"
 "http://www.w3.org/TR/2001/REC-SVG-20010904/DTD/svg10.dtd">
<svg version="1.0" xmlns="http://www.w3.org/2000/svg"
 width="512.000000pt" height="453.000000pt" viewBox="0 0 512.000000 453.000000"
 preserveAspectRatio="xMidYMid meet">

<g transform="translate(0.000000,453.000000) scale(0.100000,-0.100000)"
fill="#000000" stroke="none">
<path d="M1240 4524 c-438 -41 -813 -283 -1037 -669 -77 -131 -144 -319 -180
-500 -28 -141 -25 -465 6 -605 61 -283 193 -554 400 -820 239 -307 563 -621
1246 -1205 154 -131 388 -332 519 -445 333 -286 312 -270 360 -269 23 0 48 3
57 7 19 8 1005 850 1284 1097 254 225 617 590 745 750 249 312 384 574 452
882 19 83 22 130 23 308 0 234 -15 342 -76 526 -151 458 -498 791 -943 904
-327 83 -670 34 -951 -135 -209 -126 -419 -350 -551 -587 -16 -29 -32 -53 -36
-53 -4 0 -17 18 -28 41 -131 257 -417 541 -662 658 -82 39 -194 76 -289 95
-79 16 -262 27 -339 20z m350 -334 c207 -60 410 -209 561 -413 61 -82 94 -137
287 -490 l120 -218 55 98 c30 54 103 186 162 293 126 229 171 298 258 401 141
164 322 281 517 335 98 28 366 25 471 -4 407 -111 688 -431 775 -882 24 -128
24 -382 0 -495 -55 -254 -175 -487 -392 -760 -103 -129 -477 -506 -684 -690
-80 -71 -363 -315 -630 -543 -267 -228 -495 -424 -507 -435 l-22 -19 -408 348
c-670 571 -840 722 -1092 968 -440 432 -658 764 -732 1119 -28 131 -30 358 -6
493 47 261 157 478 328 644 135 132 323 230 506 265 114 21 334 14 433 -15z"/>
</g>
</svg>
