<?xml version="1.0" standalone="no"?>
<!DOCTYPE svg PUBLIC "-//W3C//DTD SVG 20010904//EN"
 "http://www.w3.org/TR/2001/REC-SVG-20010904/DTD/svg10.dtd">
<svg version="1.0" xmlns="http://www.w3.org/2000/svg"
 width="512.000000pt" height="512.000000pt" viewBox="0 0 512.000000 512.000000"
 preserveAspectRatio="xMidYMid meet">

<g transform="translate(0.000000,512.000000) scale(0.100000,-0.100000)"
fill="#000000" stroke="none">
<path d="M812 4057 c-20 -21 -22 -34 -22 -128 0 -151 -2 -149 160 -149 162 0
160 -2 160 150 0 98 -2 108 -23 128 -21 20 -34 22 -138 22 -108 0 -117 -2
-137 -23z"/>
<path d="M1542 4060 c-20 -19 -22 -31 -22 -128 0 -81 4 -113 16 -130 l15 -22
1374 0 1374 0 15 22 c12 17 16 49 16 128 0 98 -2 108 -23 128 l-23 22 -1360 0
c-1355 0 -1360 0 -1382 -20z"/>
<path d="M816 2729 c-25 -20 -26 -23 -26 -134 0 -111 1 -114 26 -134 23 -18
41 -21 134 -21 93 0 111 3 134 21 25 20 26 23 26 134 0 111 -1 114 -26 134
-23 18 -41 21 -134 21 -93 0 -111 -3 -134 -21z"/>
<path d="M1546 2729 c-25 -20 -26 -23 -26 -134 0 -111 1 -114 26 -134 l27 -21
1354 0 1354 0 24 25 c23 23 25 31 25 130 0 99 -2 107 -25 130 l-24 25 -1354 0
-1354 0 -27 -21z"/>
<path d="M806 1388 c-12 -17 -16 -49 -16 -128 0 -98 2 -108 23 -128 21 -20 34
-22 138 -22 108 0 117 2 137 23 20 21 22 34 22 128 0 151 2 149 -160 149 -122
0 -130 -1 -144 -22z"/>
<path d="M1536 1388 c-12 -17 -16 -49 -16 -128 0 -98 2 -108 23 -128 l23 -22
1360 0 1361 0 21 23 c20 21 22 34 22 128 0 78 -4 110 -16 127 l-15 22 -1374 0
-1374 0 -15 -22z"/>
</g>
</svg>
