<?xml version="1.0" standalone="no"?>
<!DOCTYPE svg PUBLIC "-//W3C//DTD SVG 20010904//EN"
 "http://www.w3.org/TR/2001/REC-SVG-20010904/DTD/svg10.dtd">
<svg version="1.0" xmlns="http://www.w3.org/2000/svg"
 width="512.000000pt" height="512.000000pt" viewBox="0 0 512.000000 512.000000"
 preserveAspectRatio="xMidYMid meet">

<g transform="translate(0.000000,512.000000) scale(0.100000,-0.100000)"
fill="#000000" stroke="none">
<path d="M1366 2691 c-92 -61 -94 -198 -4 -263 l33 -23 1167 0 c1161 0 1167 0
1195 21 15 11 39 41 51 67 32 64 24 115 -28 171 l-39 41 -1173 3 c-1141 2
-1174 1 -1202 -17z"/>
</g>
</svg>
