<?xml version="1.0" standalone="no"?>
<!DOCTYPE svg PUBLIC "-//W3C//DTD SVG 20010904//EN"
 "http://www.w3.org/TR/2001/REC-SVG-20010904/DTD/svg10.dtd">
<svg version="1.0" xmlns="http://www.w3.org/2000/svg"
 width="512.000000pt" height="512.000000pt" viewBox="0 0 512.000000 512.000000"
 preserveAspectRatio="xMidYMid meet">

<g transform="translate(0.000000,512.000000) scale(0.100000,-0.100000)"
fill="#000000" stroke="none">
<path d="M2480 5114 c-94 -38 -117 -67 -132 -161 -19 -126 -33 -139 -209 -199
-495 -169 -812 -466 -962 -900 -79 -227 -88 -290 -97 -686 -5 -196 -11 -365
-14 -375 -2 -10 -12 -115 -21 -233 -36 -483 -88 -691 -220 -890 -63 -95 -193
-214 -304 -280 -98 -57 -120 -80 -141 -144 -17 -51 -8 -191 15 -239 34 -73
-152 -67 2167 -65 2283 3 2116 -1 2162 61 18 24 21 43 21 120 0 81 -3 99 -28
149 -31 63 -44 75 -162 151 -233 150 -371 380 -429 717 -33 191 -67 644 -76
1005 -7 319 -10 361 -34 471 -67 317 -193 562 -391 759 -55 55 -142 129 -193
163 -114 78 -302 169 -445 216 -172 56 -191 74 -206 194 -10 83 -27 110 -83
142 -33 19 -60 24 -123 27 -44 1 -87 0 -95 -3z m236 -582 c22 -11 95 -39 163
-61 497 -166 764 -470 851 -971 6 -36 15 -222 20 -415 8 -344 34 -711 65 -930
52 -361 171 -621 377 -828 l87 -87 -1718 0 -1719 0 74 72 c207 200 325 443
385 787 35 204 70 672 79 1041 9 370 15 419 75 601 117 351 388 601 790 730
133 42 201 78 266 138 l54 49 55 -53 c31 -29 74 -62 96 -73z"/>
<path d="M1776 699 c-33 -26 -34 -62 -5 -155 63 -205 203 -370 393 -463 110
-54 180 -71 316 -78 96 -4 130 -2 205 16 168 40 329 141 430 269 98 123 181
348 147 398 -22 33 -49 34 -755 34 -697 0 -705 0 -731 -21z m994 -319 c-138
-92 -310 -103 -466 -29 -123 58 -120 59 212 59 l299 0 -45 -30z"/>
</g>
</svg>
