<?xml version="1.0" standalone="no"?>
<!DOCTYPE svg PUBLIC "-//W3C//DTD SVG 20010904//EN"
 "http://www.w3.org/TR/2001/REC-SVG-20010904/DTD/svg10.dtd">
<svg version="1.0" xmlns="http://www.w3.org/2000/svg"
 width="512.000000pt" height="512.000000pt" viewBox="0 0 512.000000 512.000000"
 preserveAspectRatio="xMidYMid meet">

<g transform="translate(0.000000,512.000000) scale(0.100000,-0.100000)"
fill="#000000" stroke="none">
<path d="M1700 4744 c-188 -49 -352 -205 -432 -410 -57 -148 -74 -330 -44
-487 64 -335 318 -577 606 -577 343 0 620 333 620 745 0 355 -203 655 -495
730 -73 19 -182 18 -255 -1z m239 -314 c124 -63 211 -234 211 -415 0 -181 -86
-351 -212 -417 -60 -31 -156 -31 -216 0 -161 85 -249 330 -197 550 57 240 245
368 414 282z"/>
<path d="M3186 4744 c-239 -58 -430 -288 -481 -579 -19 -111 -19 -189 0 -300
90 -517 584 -761 954 -470 106 83 181 195 230 341 43 127 57 256 42 375 -13
104 -58 250 -98 319 -147 253 -397 375 -647 314z m207 -300 c94 -32 182 -141
221 -273 21 -73 21 -239 0 -312 -65 -222 -250 -344 -403 -264 -225 116 -291
509 -123 730 91 119 191 158 305 119z"/>
<path d="M500 3445 c-200 -55 -358 -205 -440 -415 -185 -480 91 -1031 530
-1057 108 -7 180 8 281 59 250 125 408 455 370 774 -35 300 -208 542 -444 624
-82 29 -221 36 -297 15z m227 -312 c21 -9 59 -38 85 -64 87 -87 128 -202 128
-359 0 -141 -39 -255 -117 -341 -164 -181 -402 -100 -491 166 -99 293 76 642
310 620 27 -2 65 -12 85 -22z"/>
<path d="M4366 3444 c-105 -25 -184 -72 -271 -159 -94 -94 -144 -174 -187
-305 -31 -91 -32 -102 -32 -260 -1 -192 10 -242 81 -389 37 -78 59 -108 131
-181 125 -125 245 -180 397 -180 242 0 467 168 565 422 149 384 11 834 -307
1001 -122 64 -251 82 -377 51z m230 -312 c52 -26 126 -106 159 -172 95 -188
60 -459 -78 -601 -208 -215 -507 -5 -507 356 0 205 98 376 247 431 48 18 128
12 179 -14z"/>
<path d="M2345 2979 c-530 -72 -941 -386 -1046 -798 -11 -42 -23 -130 -28
-196 -11 -144 -23 -181 -101 -301 -113 -174 -157 -330 -147 -519 8 -132 25
-201 81 -320 99 -208 278 -366 494 -435 186 -60 345 -57 556 10 296 94 476 94
772 0 73 -24 162 -44 210 -49 494 -50 924 339 924 834 0 168 -48 322 -150 479
-78 120 -90 157 -101 301 -19 263 -101 446 -280 625 -173 172 -404 291 -684
350 -116 24 -387 35 -500 19z m340 -300 c201 -25 371 -87 520 -190 201 -138
304 -330 305 -563 0 -116 54 -270 137 -392 57 -84 81 -134 98 -206 66 -281
-103 -560 -390 -643 -93 -27 -233 -16 -363 28 -173 60 -245 72 -447 72 -204 0
-262 -9 -440 -67 -158 -52 -287 -62 -392 -30 -263 81 -426 333 -385 598 14 89
42 155 102 244 86 126 140 279 140 396 1 233 104 425 305 563 225 156 521 225
810 190z"/>
</g>
</svg>
