<?xml version="1.0" standalone="no"?>
<!DOCTYPE svg PUBLIC "-//W3C//DTD SVG 20010904//EN"
 "http://www.w3.org/TR/2001/REC-SVG-20010904/DTD/svg10.dtd">
<svg version="1.0" xmlns="http://www.w3.org/2000/svg"
 width="512.000000pt" height="512.000000pt" viewBox="0 0 512.000000 512.000000"
 preserveAspectRatio="xMidYMid meet">

<g transform="translate(0.000000,512.000000) scale(0.100000,-0.100000)"
fill="#000000" stroke="none">
<path d="M1820 5052 c-190 -88 -264 -130 -352 -201 -417 -331 -606 -918 -513
-1591 23 -165 124 -579 189 -774 154 -460 410 -991 714 -1482 214 -345 406
-554 667 -729 256 -172 525 -258 805 -258 229 0 363 33 630 156 135 62 163 79
216 132 93 92 132 219 104 336 -17 70 -411 967 -449 1023 -76 110 -238 175
-366 146 -27 -6 -153 -58 -278 -116 -131 -60 -241 -104 -258 -104 -43 0 -92
25 -111 58 -9 15 -165 369 -348 786 -311 711 -332 762 -328 806 8 84 23 95
285 215 199 91 247 117 290 159 91 85 136 214 114 330 -10 54 -384 921 -436
1012 -30 52 -105 120 -158 145 -33 15 -65 19 -157 19 l-115 0 -145 -68z m319
-209 c13 -11 103 -204 221 -471 215 -487 222 -511 178 -555 -13 -13 -121 -67
-241 -122 -234 -107 -291 -143 -348 -219 -69 -91 -99 -249 -68 -359 18 -67
688 -1588 719 -1632 67 -97 178 -156 306 -163 102 -5 124 2 392 124 223 103
262 112 300 71 23 -24 422 -924 422 -952 0 -9 -7 -30 -16 -47 -13 -24 -42 -43
-149 -94 -241 -115 -349 -140 -572 -131 -106 4 -160 11 -233 31 -210 59 -416
184 -603 366 -142 136 -225 245 -370 478 -342 550 -650 1231 -751 1662 -15 63
-38 158 -51 210 -59 234 -82 476 -65 688 25 312 112 558 268 753 112 140 216
215 442 319 134 62 183 72 219 43z"/>
</g>
</svg>
