<?xml version="1.0" standalone="no"?>
<!DOCTYPE svg PUBLIC "-//W3C//DTD SVG 20010904//EN"
 "http://www.w3.org/TR/2001/REC-SVG-20010904/DTD/svg10.dtd">
<svg version="1.0" xmlns="http://www.w3.org/2000/svg"
 width="512.000000pt" height="512.000000pt" viewBox="0 0 512.000000 512.000000"
 preserveAspectRatio="xMidYMid meet">

<g transform="translate(0.000000,512.000000) scale(0.100000,-0.100000)"
fill="#000000" stroke="none">
<path d="M1891 4642 c-72 -36 -76 -49 -79 -283 -3 -223 3 -272 50 -363 26 -52
112 -142 163 -172 100 -58 100 -58 512 -64 365 -5 383 -6 409 -26 50 -37 69
-72 69 -124 0 -52 -19 -87 -69 -124 -27 -21 -40 -21 -709 -26 -745 -6 -706 -2
-812 -64 -51 -30 -137 -120 -163 -172 -72 -141 -68 -281 10 -337 38 -28 114
-33 157 -10 49 25 70 59 81 128 10 63 29 96 74 129 27 21 40 21 709 26 745 6
706 2 812 64 51 30 137 120 163 172 69 135 69 293 0 428 -26 52 -112 142 -163
172 -100 58 -100 58 -512 64 -365 5 -383 6 -409 26 -67 49 -69 56 -74 279 -5
186 -7 206 -26 232 -26 36 -79 63 -124 63 -19 0 -50 -8 -69 -18z"/>
<path d="M3701 3442 c-19 -9 -44 -30 -55 -45 -21 -28 -21 -38 -21 -575 0 -546
0 -547 23 -622 79 -249 256 -430 497 -506 l70 -22 3 -456 2 -456 -298 0 -299
0 -6 187 c-6 205 -23 308 -78 475 -192 590 -719 1033 -1336 1121 l-88 13 -5
106 c-4 87 -9 112 -26 135 -60 82 -188 82 -248 0 -17 -23 -22 -48 -26 -135
l-5 -106 -88 -13 c-617 -88 -1144 -531 -1336 -1121 -55 -169 -72 -271 -78
-474 l-6 -188 -91 0 c-146 0 -201 -41 -201 -150 0 -68 21 -105 76 -132 32 -17
171 -18 2479 -18 2308 0 2447 1 2479 18 55 27 76 64 76 132 0 68 -21 105 -76
132 -30 16 -65 18 -277 18 l-242 0 2 456 3 456 70 22 c241 76 418 257 497 506
23 75 23 76 23 622 0 537 0 547 -21 575 -48 65 -23 63 -724 63 -585 0 -638 -1
-669 -18z m1119 -671 c0 -218 -4 -412 -10 -442 -44 -233 -277 -399 -507 -361
-186 31 -339 179 -373 361 -6 30 -10 224 -10 442 l0 389 450 0 450 0 0 -389z
m-2610 -536 c548 -105 981 -534 1085 -1076 9 -46 19 -155 22 -241 l6 -158
-1363 0 -1363 0 6 158 c3 86 13 195 22 241 110 573 589 1018 1173 1090 102 13
307 6 412 -14z"/>
</g>
</svg>
