<?xml version="1.0" standalone="no"?>
<!DOCTYPE svg PUBLIC "-//W3C//DTD SVG 20010904//EN"
 "http://www.w3.org/TR/2001/REC-SVG-20010904/DTD/svg10.dtd">
<svg version="1.0" xmlns="http://www.w3.org/2000/svg"
 width="469.000000pt" height="511.000000pt" viewBox="0 0 469.000000 511.000000"
 preserveAspectRatio="xMidYMid meet">

<g transform="translate(0.000000,511.000000) scale(0.100000,-0.100000)"
fill="#000000" stroke="none">
<path d="M3500 5094 c-246 -66 -418 -271 -436 -521 -8 -109 24 -243 83 -343 5
-8 -177 -225 -192 -228 -7 -2 -286 47 -621 109 -617 112 -659 118 -707 86 -36
-23 -729 -967 -740 -1007 -13 -46 -2 -100 25 -135 42 -54 136 -71 194 -36 19
12 148 178 330 424 303 411 335 447 393 447 25 0 893 -158 898 -164 6 -6
-1516 -1819 -1545 -1841 -26 -19 -46 -20 -554 -25 -512 -5 -527 -6 -554 -26
-51 -37 -69 -71 -69 -127 0 -60 27 -107 78 -135 29 -15 83 -17 582 -20 384 -2
566 0 602 8 64 14 29 -25 572 625 221 264 406 480 411 480 18 0 750 -958 762
-996 10 -36 -3 -87 -196 -762 -113 -398 -206 -738 -206 -756 0 -112 117 -184
217 -133 22 12 47 31 55 44 20 30 468 1599 468 1637 0 16 -4 40 -9 53 -5 13
-207 279 -450 592 -380 491 -439 572 -427 585 7 9 128 154 270 324 141 169
259 307 261 307 2 0 119 -202 260 -450 141 -247 268 -458 282 -469 31 -25 81
-35 127 -27 24 5 169 110 487 352 250 190 469 360 487 377 64 61 63 153 -2
216 -41 40 -115 53 -163 29 -15 -8 -173 -125 -350 -261 -178 -135 -333 -251
-344 -258 -29 -15 -108 -7 -142 15 -18 12 -94 136 -227 368 -110 193 -200 355
-200 360 0 6 33 49 73 96 39 47 77 92 82 99 8 10 24 7 80 -13 93 -35 232 -43
325 -20 205 52 366 207 426 411 23 80 23 220 0 300 -59 202 -220 359 -421 410
-74 19 -202 18 -275 -1z"/>
</g>
</svg>
