<?xml version="1.0" encoding="utf-8"?>
<!-- Generator: Adobe Illustrator 25.0.1, SVG Export Plug-In . SVG Version: 6.00 Build 0)  -->
<svg version="1.1" id="Calque_1" xmlns="http://www.w3.org/2000/svg" xmlns:xlink="http://www.w3.org/1999/xlink" x="0px" y="0px"
	 viewBox="0 0 512 512" style="enable-background:new 0 0 512 512;" xml:space="preserve">
<g transform="translate(0.000000,512.000000) scale(0.100000,-0.100000)">
	<path d="M2802.6,4921.6c-330-24.7-619.3-100.5-885.8-233.3c-240.9-118.6-417.3-247.5-622.2-453.3
		c-194.4-195.4-336.7-396.4-450.5-634.5c-65.4-136.6-94.8-218.1-137.5-371.8l-31.3-113.8l-276-4.7l-276.9-4.7L60.7,2965
		C27.5,2888.2,0,2822.8,0,2820.9c0-2.8,142.3-4.7,315.8-4.7h314.9l-6.6-128c-4.7-70.2-4.7-185.9,0-256.1l6.6-128l-254.2-1.9
		l-254.2-2.8l-61.6-140.4C27.5,2081.1,0,2015.7,0,2013.8s151.7-4.7,337.6-5.7l337.6-2.8l31.3-113.8
		c107.2-388.9,296.9-713.2,588-1006.3c204.9-205.8,381.3-334.8,622.2-453.3c323.4-160.3,660.1-235.2,1066-236.2
		c431.5-0.9,790,78.7,1127.7,251.3c101.5,53.1,274.1,165,348.1,226.7l46.5,38.9v213.4v214.3l-74-70.2
		c-337.6-320.6-730.3-509.3-1182.7-569c-141.3-18-433.4-13.3-589,9.5c-442,66.4-817.5,257-1140.9,580.4
		c-246.6,246.6-411.6,516.9-516.9,847.9l-22.8,71.1l1371.4,1.9l1370.5,2.8l60.7,136.6c33.2,74.9,59.8,140.4,59.8,145.1
		c0,3.8-654.4,7.6-1454.9,7.6H931.3l-7.6,40.8c-8.5,52.2-8.5,378.4,0,431.5l7.6,39.8h1563.9h1563l11.4,19.9
		c11.4,21.8,112.9,264.6,112.9,270.3c0,1.9-720.8,3.8-1601.9,3.8H978.8l22.8,71.1c146.1,460.9,440.1,848.8,849.8,1122.9
		c467.6,312,1097.3,409.7,1675.9,260.8c326.3-84.4,670.5-282.6,936.1-536.8l77.8-74l42.7,96.7c22.8,54.1,52.2,120.4,64.5,148.9
		l21.8,51.2l-56.9,52.2c-371.8,339.5-800.5,539.6-1293.6,603.2C3179.1,4924.5,2935.3,4932,2802.6,4921.6z"/>
</g>
</svg>
