<?xml version="1.0" standalone="no"?>
<!DOCTYPE svg PUBLIC "-//W3C//DTD SVG 20010904//EN"
 "http://www.w3.org/TR/2001/REC-SVG-20010904/DTD/svg10.dtd">
<svg version="1.0" xmlns="http://www.w3.org/2000/svg"
 width="512.000000pt" height="512.000000pt" viewBox="0 0 512.000000 512.000000"
 preserveAspectRatio="xMidYMid meet">

<g transform="translate(0.000000,512.000000) scale(0.100000,-0.100000)"
fill="#000000" stroke="none">
<path d="M3730 5093 c-52 -9 -177 -54 -223 -82 -65 -38 -143 -104 -195 -165
-57 -67 -129 -214 -147 -301 -77 -367 145 -739 497 -835 57 -15 63 -19 66 -46
11 -108 72 -232 153 -314 63 -62 175 -125 245 -136 23 -3 46 -9 52 -13 6 -4
61 -139 123 -301 61 -162 115 -303 121 -313 5 -10 24 -27 41 -37 28 -17 51
-20 168 -20 125 0 139 2 170 23 18 12 39 39 47 59 13 34 9 65 -62 455 l-76
418 21 60 c12 33 23 95 26 137 12 159 -38 288 -154 405 l-71 72 16 58 c22 80
22 267 -1 353 -64 246 -267 447 -513 510 -73 19 -230 25 -304 13z m233 -268
c32 -8 76 -24 99 -36 50 -26 142 -110 174 -161 83 -131 85 -332 4 -463 -25
-40 -26 -107 -3 -146 12 -20 42 -41 88 -63 154 -73 208 -207 142 -350 -15 -32
-27 -72 -27 -90 0 -17 14 -107 31 -200 16 -92 28 -170 26 -172 -2 -2 -23 49
-47 113 -69 189 -83 203 -201 208 -36 2 -81 10 -101 18 -55 23 -113 82 -138
139 -20 46 -21 62 -15 140 6 79 4 92 -14 121 -27 45 -60 58 -160 68 -206 19
-367 170 -403 377 -52 302 247 575 545 497z"/>
<path d="M134 2391 c-67 -41 -64 -21 -64 -500 l0 -434 25 -33 c15 -20 40 -37
63 -44 51 -14 4752 -14 4804 0 20 6 48 24 62 41 l26 31 0 437 c0 429 0 439
-21 465 -47 60 143 56 -2471 56 -2338 0 -2394 -1 -2424 -19z m4076 -496 l0
-255 -1940 0 -1940 0 0 255 0 255 1940 0 1940 0 0 -255z m580 0 l0 -255 -160
0 -160 0 0 248 c0 137 3 252 7 255 3 4 75 7 160 7 l153 0 0 -255z"/>
</g>
</svg>
