<?xml version="1.0" standalone="no"?>
<!DOCTYPE svg PUBLIC "-//W3C//DTD SVG 20010904//EN"
 "http://www.w3.org/TR/2001/REC-SVG-20010904/DTD/svg10.dtd">
<svg version="1.0" xmlns="http://www.w3.org/2000/svg"
 width="512.000000pt" height="512.000000pt" viewBox="0 0 512.000000 512.000000"
 preserveAspectRatio="xMidYMid meet">

<g transform="translate(0.000000,512.000000) scale(0.100000,-0.100000)"
fill="#000000" stroke="none">
<path d="M2792 5056 c-262 -50 -473 -166 -683 -375 -180 -181 -294 -370 -351
-584 l-22 -83 -85 20 c-71 16 -123 20 -291 20 -220 1 -289 -8 -449 -61 -367
-120 -648 -424 -784 -848 -68 -212 -67 -199 -67 -1006 l0 -729 267 -2 268 -3
110 -162 110 -162 92 -1 93 0 2 -472 3 -473 350 0 350 0 3 472 2 472 92 3 91
3 111 162 111 163 268 0 267 0 0 452 0 453 210 -210 210 -210 187 187 188 187
198 -36 197 -37 65 64 65 65 333 -333 332 -332 243 243 c133 133 242 247 242
252 0 5 -147 157 -327 337 l-328 328 63 63 c34 34 62 71 62 82 0 11 -15 101
-34 200 l-35 180 190 190 189 190 -517 517 c-557 555 -571 567 -782 672 -106
54 -259 107 -376 131 -108 23 -339 29 -433 11z m344 -271 c162 -26 340 -98
488 -196 50 -33 193 -170 481 -458 l410 -411 -722 -722 -723 -723 -209 209
-208 208 -6 116 c-4 83 -14 151 -36 233 -93 357 -278 641 -529 810 -58 38 -81
60 -82 75 0 41 41 180 75 252 100 210 306 421 515 527 171 85 350 112 546 80z
m-1526 -1020 c171 -37 311 -115 445 -250 142 -142 229 -301 293 -535 l27 -95
3 -602 3 -603 -1026 0 -1025 0 0 580 c0 634 1 642 60 822 98 293 288 519 526
624 66 29 177 61 260 74 84 13 345 4 434 -15z m2689 -710 c1 -12 -39 -60 -106
-127 l-108 -108 333 -333 332 -332 -57 -58 -58 -57 -332 332 -333 333 -108
-108 c-108 -108 -109 -108 -147 -101 l-37 7 303 303 c311 311 316 315 318 249z
m-2519 -1652 c0 -5 -8 -18 -18 -30 -16 -21 -25 -23 -172 -25 l-155 -3 -3 -467
-2 -468 -80 0 -80 0 0 470 0 470 -154 0 c-149 0 -155 1 -170 22 -9 12 -16 26
-16 30 0 5 191 8 425 8 234 0 425 -3 425 -7z"/>
<path d="M3330 1519 c-84 -14 -169 -60 -234 -128 -203 -213 -143 -547 121
-678 63 -31 87 -37 158 -41 191 -10 357 94 427 268 18 44 22 75 23 160 0 97
-2 110 -31 171 -86 181 -271 280 -464 248z m157 -290 c69 -43 94 -145 50 -210
-50 -75 -134 -99 -207 -60 -105 55 -109 209 -8 271 45 27 120 27 165 -1z"/>
</g>
</svg>
