<?xml version="1.0" standalone="no"?>
<!DOCTYPE svg PUBLIC "-//W3C//DTD SVG 20010904//EN"
 "http://www.w3.org/TR/2001/REC-SVG-20010904/DTD/svg10.dtd">
<svg version="1.0" xmlns="http://www.w3.org/2000/svg"
 width="512.000000pt" height="512.000000pt" viewBox="0 0 512.000000 512.000000"
 preserveAspectRatio="xMidYMid meet">

<g transform="translate(0.000000,512.000000) scale(0.100000,-0.100000)"
fill="#000000" stroke="none">
<path d="M805 5101 c-48 -22 -79 -54 -100 -103 -13 -33 -15 -294 -15 -2438 0
-2144 2 -2405 15 -2438 21 -49 52 -81 100 -103 38 -18 110 -19 1803 -19 1916
0 1796 -4 1855 56 67 67 62 -45 65 1382 1 894 -1 1306 -8 1333 -20 73 -68 106
-405 279 l-315 161 0 207 c0 118 -5 224 -11 246 -6 22 -29 59 -52 83 -41 42
-47 45 -192 82 -82 21 -331 89 -552 151 l-402 113 -3 442 -3 442 -30 48 c-20
32 -45 56 -74 72 l-44 23 -796 0 c-753 0 -798 -1 -836 -19z m1475 -2541 l0
-2260 -647 2 c-524 2 -585 4 -318 8 l330 5 0 85 0 85 -327 3 -328 2 0 170 0
170 330 0 330 0 0 85 0 85 -330 0 -330 0 0 170 0 170 328 2 327 3 0 85 0 85
-327 3 -328 2 0 170 0 170 330 0 330 0 0 85 0 85 -330 0 -330 0 0 170 0 170
328 2 327 3 0 85 0 85 -327 3 -328 2 0 170 0 170 330 0 330 0 0 85 0 85 -330
0 -330 0 0 170 0 170 328 2 327 3 0 85 0 85 -327 3 -328 2 0 170 0 170 330 0
330 0 0 85 0 85 -330 0 -330 0 0 170 0 170 328 2 327 3 0 85 0 85 -327 3 -328
2 0 105 0 105 645 0 645 0 0 -2260z m730 1101 c217 -60 414 -115 438 -121 l42
-11 0 -1614 0 -1615 -452 2 c-445 3 -448 3 -153 8 l300 5 0 85 0 85 -297 3
-298 2 0 170 0 170 300 0 300 0 0 85 0 85 -300 0 -300 0 0 170 0 170 298 2
297 3 0 85 0 85 -297 3 -298 2 0 170 0 170 300 0 300 0 0 85 0 85 -300 0 -300
0 0 170 0 170 298 2 297 3 0 85 0 85 -297 3 -298 2 0 170 0 170 300 0 300 0 0
85 0 85 -300 0 -300 0 0 170 0 170 298 2 297 3 0 85 0 85 -297 3 -298 2 0 100
c0 75 3 98 13 95 6 -2 190 -53 407 -114z m1210 -2183 l0 -1178 -212 2 c-189 2
-199 3 -88 8 l125 5 0 85 0 85 -122 3 -123 3 0 169 0 170 125 0 125 0 0 85 0
85 -125 0 -125 0 0 170 0 169 123 3 122 3 0 85 0 85 -122 3 -123 3 0 169 0
170 125 0 125 0 0 85 0 85 -125 0 -125 0 0 170 0 169 123 3 122 3 0 85 0 85
-122 3 -123 3 0 158 0 159 210 -106 210 -107 0 -1177z"/>
</g>
</svg>
