<?xml version="1.0" standalone="no"?>
<!DOCTYPE svg PUBLIC "-//W3C//DTD SVG 20010904//EN"
 "http://www.w3.org/TR/2001/REC-SVG-20010904/DTD/svg10.dtd">
<svg version="1.0" xmlns="http://www.w3.org/2000/svg"
 width="512.000000pt" height="512.000000pt" viewBox="0 0 512.000000 512.000000"
 preserveAspectRatio="xMidYMid meet">

<g transform="translate(0.000000,512.000000) scale(0.100000,-0.100000)"
fill="#000000" stroke="none">
<path d="M1515 5099 c-184 -28 -390 -136 -539 -283 -301 -297 -454 -798 -391
-1279 29 -221 84 -391 268 -827 68 -162 132 -316 141 -342 31 -81 104 -138
178 -138 18 0 224 51 458 114 234 64 443 120 466 126 57 14 105 49 130 94 20
35 22 57 27 269 6 241 11 292 72 617 61 329 69 401 69 605 1 205 -11 293 -60
442 -133 406 -472 656 -819 602z m260 -303 c91 -44 200 -159 252 -266 119
-241 129 -479 43 -961 -73 -406 -81 -467 -87 -661 -5 -161 -8 -188 -22 -192
-74 -22 -722 -196 -730 -196 -6 0 -11 4 -11 9 0 6 -51 131 -113 278 -193 455
-236 590 -257 811 -31 319 59 679 224 899 99 131 240 237 383 289 58 21 82 24
163 22 81 -3 105 -8 155 -32z"/>
<path d="M3455 4110 c-74 -14 -159 -45 -234 -86 -93 -52 -252 -214 -310 -316
-171 -305 -205 -603 -135 -1213 29 -257 36 -510 21 -725 -8 -110 -7 -117 15
-155 29 -50 71 -78 156 -106 37 -12 234 -80 437 -152 204 -71 386 -134 405
-138 49 -11 113 7 154 45 26 23 84 128 223 406 210 416 260 534 308 725 94
370 61 758 -91 1092 -132 291 -407 539 -673 608 -78 20 -209 27 -276 15z m258
-295 c227 -90 407 -298 497 -576 48 -147 64 -254 62 -439 -1 -192 -24 -325
-88 -500 -33 -90 -361 -760 -383 -783 -5 -5 -170 48 -367 118 l-359 126 0 262
c0 220 -5 300 -28 502 -61 531 -45 753 74 994 132 267 367 385 592 296z"/>
<path d="M1698 2256 c-493 -122 -519 -131 -552 -201 -35 -73 -33 -86 64 -406
50 -167 106 -331 123 -364 18 -34 62 -91 102 -130 117 -118 254 -175 417 -175
257 0 482 160 564 400 43 127 42 186 -10 530 -26 168 -51 319 -56 336 -11 31
-59 84 -95 102 -57 28 -92 23 -557 -92z m446 -440 c48 -317 43 -355 -57 -463
-143 -155 -407 -128 -508 52 -28 50 -167 491 -158 500 7 6 639 163 665 164 19
1 23 -14 58 -253z"/>
<path d="M2794 1420 c-50 -11 -98 -46 -121 -87 -12 -22 -50 -165 -89 -333 -60
-260 -68 -307 -67 -395 0 -129 31 -231 102 -332 64 -90 126 -144 226 -194 180
-90 390 -84 563 17 61 35 164 134 201 193 16 25 80 177 142 336 122 317 132
359 94 424 -41 70 -68 81 -530 229 -242 77 -451 142 -465 145 -14 2 -39 1 -56
-3z m441 -400 c176 -57 323 -105 327 -109 11 -10 -168 -461 -199 -500 -38 -46
-114 -98 -166 -112 -63 -17 -174 -8 -229 19 -64 32 -120 88 -153 156 -41 85
-38 145 24 418 28 126 51 231 51 234 0 3 6 4 13 1 6 -2 156 -51 332 -107z"/>
</g>
</svg>
