{
    "activity": [
        {
            "_key": 1,
            "title": "Picnic en forêt",
            "description": "Nous allons manger en forêt car c'est cool la forêt",
            "isPro": true,
            "coordinates": "5 rue Jean Michel",
            "address": "Marzy 58180",
            "price": 0,
            "beginningDate": "2021-02-02",
            "duration": 45,
            "bookable": true,
            "nbPlaces": 53,
            "handler": [{
                "_key": 1,
                "email": "jeanrochard@gmail.com",
                "name": "Rochard",
                "pseudo": "Jrochard",
                "bio": "J'aime manger en forêt",
                "phone": "+33 6 87 87 23 09",
                "tokken": "oui",
                "refreshToken": "oui"

            }],
            "participants": 30,
            "imagesPaths": "https://img.naturaki.com/54659on-fer-picnic-costa-brava.jpg",
            "tags": [
                "Manger",
                "Nature"
            ]
        },
        {
            "_key": 2,
            "title": "Balade en poney",
            "description": "Nous allons nous balader en poney afin de parcourir Kanto",
            "isPro": false,
            "coordinates": "5 rue Sébastien",
            "address": "Nevers 58000",
            "price": 35,
            "beginningDate": "2021-03-03",
            "duration": 120,
            "bookable": true,
            "nbPlaces": 40,
            "handler": [{
                "_key": 2,
                "email": "yvesletienne@gmail.com",
                "name": "Letienne",
                "pseudo": "yle@gmail.com",
                "bio": "Le poney, plus qu'une passion !",
                "phone": "+33 6 43 64 72 65",
                "tokken": "oui",
                "refreshToken": "oui"

            }],
            "participants": 12,
            "imagesPaths": "https://i2.wp.com/www.henson.fr/wp-content/uploads/2018/02/FLO_6319.jpg?fit=1133%2C1702&ssl=1",
            "tags": [
                "Ponet",
                "Nature",
                "Balade"
            ]
        },
        {
            "_key": 3,
            "title": "Rien faire",
            "description": "Rejoignez moi à ne rien faire de toute votre après-midi. Nous ne ferons rien, strictement rien. Toute discussion ou source d'amusement est prohibé !",
            "isPro": false,
            "coordinates": "5 rue de la feignasse",
            "address": "Nevers 58000",
            "price": 100,
            "beginningDate": "2021-04-04",
            "duration": 180,
            "bookable": true,
            "nbPlaces": 150,
            "handler": [{
                "_key": 1,
                "email": "theodumarbre@gmail.com",
                "name": "Dumarbre",
                "pseudo": "theodu58",
                "bio": "Rien",
                "phone": "+33 6 35 73 72 99",
                "tokken": "oui",
                "refreshToken": "oui"

            }],
            "participants": 2,
            "imagesPaths": "https://i1.wp.com/pepsnews.com/wp-content/uploads/2016/11/what-homer-simpson-taught-us-about-doughnuts.jpg",
            "tags": [
                "Rien",
                "Maison"
            ]
        }
        
    ]
    
        
}